// Jest Snapshot v1, https://goo.gl/fbAQLP

exports[`Input renders without crashing 1`] = `
<div
  className="form-group "
>
  <input
    autoComplete="off"
    className="form-control form-control-lg 
           "
    id="my-input-1"
    key=""
    name="name"
    onBlur={[Function]}
    onChange={[MockFunction]}
    onKeyPress={[MockFunction]}
    required={true}
    type="text"
    value=""
  />
</div>
`;
